{
    "introduction":{
        "fr":"Introduction",
        "en":"Introduction"
    },
    "FacilitatorName":{
        "fr":"Facilitateur :",
        "en":"Facilitator:"
    },
    "subject":{
        "fr":"Sujet ",
        "en":"Subject"
    },
    "expert":{
        "fr":"Expert :",
        "en":"Expert:"
    },
    "date":{
        "fr":"Date :   ",
        "en":"Date:   "
    },
    "openSession":{
        "fr":"Ouvrir une nouvelle session",
        "en":"Open a new session"
    },
    "exName":{
        "fr":"Prénom Nom",
        "en":"Name Surname"
    },
    "exampleRelQuant":{
        "fr":"Exemple de relation quantitative",
        "en":"Example of quantitative relationship"
    },
    "textIntro":{
        "fr":"Décrivez ici, ce que vous voulez apprendre de l'expert.",
        "en":"You should describe here, what you want to learn from the expert."
    },
    "textExampleRelQuant":{
        "en":"Here you can explain the idea of eliciting a correlation coefficient.",
        "fr":"Ici vous pouvez expliquez l'idée d'éliciter un coefficient de correlation."
    },
    "relevantXY":{
        "en":"Relevant Y",
        "fr":"Valeurs Y pertinente"
    },
    "textRelevantXY":{
        "en":"Here you need to describe precisely what Ys are in the correlation graph.",
        "fr":"Ici vous pouvez décrire précisément à quoi correspondent X et Y dans le graphique de corrélation."
    },
    "variableCol":{
        "en":"Elicited variable (X)",
        "fr":"Variable d'intérêt (X)"
    },
    "mecaCol":{
        "en":"Possible interactions",
        "fr":"Interactions possibles"
    },
    "quantiCol":{
        "en":"Interaction strength",
        "fr":"Force de la correlation"
    },
    "shortQuestName":{
        "en":"ShortQuestionnaireName",
        "fr":"NomQuestionnaireCourt"
    },
    "help":{
        "en":"Help",
        "fr":"Aide"
    },
    "subTitle":{
        "en":"Qualitative and quantitative comparative elicitation",
        "fr":"Elicitation comparative, quantitative et qualitative"
    },
    "formulationQuestion":{
        "en":"Precise formulation of the question",
        "fr":"Formulation précise de la question"
    },
    "questionTag":{
        "en":"Question:",
        "fr":"Question :"
    },
    "numberOfChips":{
        "en":"Number of chips ",
        "fr":"Nombre de cases (chips) "
    },
    "aboutUs":{
        "en":"About Us",
        "fr":"A propos"
    },
    "saveAsJson":{
        "en":"Save as JSON",
        "fr":"Enregistrer (JSON)"
    },
    "back":{
        "en":"Back",
        "fr":"Retour"
    },
    "addRow":{
        "en":"Add row",
        "fr":"Ajouter une ligne"
    }
}
